rtl/apb.vcd
$date
	Thu Dec  5 00:43:51 2024
$end
$version
	QuestaSim Version 2024.2
$end
$timescale
	1ns
$end

$scope module tb_apb_master_slave $end
$var reg 1 ! pclk $end
$var reg 1 " preset_n $end
$var reg 2 # add_i [1:0] $end
$var reg 32 $ external_wdata_i [31:0] $end
$var reg 1 % ready_o $end
$var reg 32 & rdata_o [31:0] $end

$scope task reset_system $end
$upscope $end

$scope task perform_write $end
$var reg 32 ' data [31:0] $end
$upscope $end

$scope task perform_read $end
$upscope $end

$scope module uut $end
$var wire 1 ( pclk $end
$var wire 1 ) preset_n $end
$var wire 1 * add_i [1] $end
$var wire 1 + add_i [0] $end
$var wire 1 , external_wdata_i [31] $end
$var wire 1 - external_wdata_i [30] $end
$var wire 1 . external_wdata_i [29] $end
$var wire 1 / external_wdata_i [28] $end
$var wire 1 0 external_wdata_i [27] $end
$var wire 1 1 external_wdata_i [26] $end
$var wire 1 2 external_wdata_i [25] $end
$var wire 1 3 external_wdata_i [24] $end
$var wire 1 4 external_wdata_i [23] $end
$var wire 1 5 external_wdata_i [22] $end
$var wire 1 6 external_wdata_i [21] $end
$var wire 1 7 external_wdata_i [20] $end
$var wire 1 8 external_wdata_i [19] $end
$var wire 1 9 external_wdata_i [18] $end
$var wire 1 : external_wdata_i [17] $end
$var wire 1 ; external_wdata_i [16] $end
$var wire 1 < external_wdata_i [15] $end
$var wire 1 = external_wdata_i [14] $end
$var wire 1 > external_wdata_i [13] $end
$var wire 1 ? external_wdata_i [12] $end
$var wire 1 @ external_wdata_i [11] $end
$var wire 1 A external_wdata_i [10] $end
$var wire 1 B external_wdata_i [9] $end
$var wire 1 C external_wdata_i [8] $end
$var wire 1 D external_wdata_i [7] $end
$var wire 1 E external_wdata_i [6] $end
$var wire 1 F external_wdata_i [5] $end
$var wire 1 G external_wdata_i [4] $end
$var wire 1 H external_wdata_i [3] $end
$var wire 1 I external_wdata_i [2] $end
$var wire 1 J external_wdata_i [1] $end
$var wire 1 K external_wdata_i [0] $end
$var reg 1 L ready_o $end
$var reg 32 M rdata_o [31:0] $end
$upscope $end
$upscope $end
$enddefinitions $end
#0
$dumpvars
0!
0"
b0 #
b0 $
0%
b0 &
0L
b0 M
bx '
0K
0J
0I
0H
0G
0F
0E
0D
0C
0B
0A
0@
0?
0>
0=
0<
0;
0:
09
08
07
06
05
04
03
02
01
00
0/
0.
0-
0,
0+
0*
0)
0(
$end
#10
1!
1(
#20
0!
0(
1"
1)
#30
1!
1(
#40
0!
0(
b10010001101001010101111001101 '
b10010001101001010101111001101 $
b11 #
1K
1I
1H
1E
1D
1C
1B
1@
1>
1<
19
17
16
12
1/
1+
1*
#50
1!
1(
#60
0!
0(
#70
1!
1(
1L
1%
#80
0!
0(
b0 #
b1 #
0*
#90
1!
1(
0L
0%
#100
0!
0(
#110
1!
1(
b0 #
b1 #
#120
0!
0(
#130
1!
1(
1L
1%
b10010001101001010101111001101 M
b10010001101001010101111001101 &
#140
0!
0(
#150
1!
1(
b0 #
0+
0L
0%
b0 M
b0 &
