bhavana_work/test1/sim/dump.vcd
$date
	Thu Nov 28 15:31:10 2024
$end
$version
	QuestaSim Version 2024.2
$end
$timescale
	1ns
$end

$scope module apb_tb $end
$var reg 1 ! P_clk $end
$var reg 1 " P_rst $end
$var reg 32 # P_addr [31:0] $end
$var reg 1 $ P_selx $end
$var reg 1 % P_enable $end
$var reg 1 & P_write $end
$var reg 32 ' P_wdata [31:0] $end
$var wire 1 ( P_ready $end
$var wire 1 ) P_slverr $end
$var wire 1 * P_rdata [31] $end
$var wire 1 + P_rdata [30] $end
$var wire 1 , P_rdata [29] $end
$var wire 1 - P_rdata [28] $end
$var wire 1 . P_rdata [27] $end
$var wire 1 / P_rdata [26] $end
$var wire 1 0 P_rdata [25] $end
$var wire 1 1 P_rdata [24] $end
$var wire 1 2 P_rdata [23] $end
$var wire 1 3 P_rdata [22] $end
$var wire 1 4 P_rdata [21] $end
$var wire 1 5 P_rdata [20] $end
$var wire 1 6 P_rdata [19] $end
$var wire 1 7 P_rdata [18] $end
$var wire 1 8 P_rdata [17] $end
$var wire 1 9 P_rdata [16] $end
$var wire 1 : P_rdata [15] $end
$var wire 1 ; P_rdata [14] $end
$var wire 1 < P_rdata [13] $end
$var wire 1 = P_rdata [12] $end
$var wire 1 > P_rdata [11] $end
$var wire 1 ? P_rdata [10] $end
$var wire 1 @ P_rdata [9] $end
$var wire 1 A P_rdata [8] $end
$var wire 1 B P_rdata [7] $end
$var wire 1 C P_rdata [6] $end
$var wire 1 D P_rdata [5] $end
$var wire 1 E P_rdata [4] $end
$var wire 1 F P_rdata [3] $end
$var wire 1 G P_rdata [2] $end
$var wire 1 H P_rdata [1] $end
$var wire 1 I P_rdata [0] $end

$scope task initialization $end
$upscope $end

$scope task reset $end
$upscope $end

$scope task write_stimulus $end
$upscope $end

$scope task read_stimulus $end
$upscope $end

$scope task read_write $end
$upscope $end

$scope module dut1 $end
$var wire 1 J P_clk $end
$var wire 1 K P_rst $end
$var wire 1 L P_addr [31] $end
$var wire 1 M P_addr [30] $end
$var wire 1 N P_addr [29] $end
$var wire 1 O P_addr [28] $end
$var wire 1 P P_addr [27] $end
$var wire 1 Q P_addr [26] $end
$var wire 1 R P_addr [25] $end
$var wire 1 S P_addr [24] $end
$var wire 1 T P_addr [23] $end
$var wire 1 U P_addr [22] $end
$var wire 1 V P_addr [21] $end
$var wire 1 W P_addr [20] $end
$var wire 1 X P_addr [19] $end
$var wire 1 Y P_addr [18] $end
$var wire 1 Z P_addr [17] $end
$var wire 1 [ P_addr [16] $end
$var wire 1 \ P_addr [15] $end
$var wire 1 ] P_addr [14] $end
$var wire 1 ^ P_addr [13] $end
$var wire 1 _ P_addr [12] $end
$var wire 1 ` P_addr [11] $end
$var wire 1 a P_addr [10] $end
$var wire 1 b P_addr [9] $end
$var wire 1 c P_addr [8] $end
$var wire 1 d P_addr [7] $end
$var wire 1 e P_addr [6] $end
$var wire 1 f P_addr [5] $end
$var wire 1 g P_addr [4] $end
$var wire 1 h P_addr [3] $end
$var wire 1 i P_addr [2] $end
$var wire 1 j P_addr [1] $end
$var wire 1 k P_addr [0] $end
$var wire 1 l P_selx $end
$var wire 1 m P_enable $end
$var wire 1 n P_write $end
$var wire 1 o P_wdata [31] $end
$var wire 1 p P_wdata [30] $end
$var wire 1 q P_wdata [29] $end
$var wire 1 r P_wdata [28] $end
$var wire 1 s P_wdata [27] $end
$var wire 1 t P_wdata [26] $end
$var wire 1 u P_wdata [25] $end
$var wire 1 v P_wdata [24] $end
$var wire 1 w P_wdata [23] $end
$var wire 1 x P_wdata [22] $end
$var wire 1 y P_wdata [21] $end
$var wire 1 z P_wdata [20] $end
$var wire 1 { P_wdata [19] $end
$var wire 1 | P_wdata [18] $end
$var wire 1 } P_wdata [17] $end
$var wire 1 ~ P_wdata [16] $end
$var wire 1 !! P_wdata [15] $end
$var wire 1 "! P_wdata [14] $end
$var wire 1 #! P_wdata [13] $end
$var wire 1 $! P_wdata [12] $end
$var wire 1 %! P_wdata [11] $end
$var wire 1 &! P_wdata [10] $end
$var wire 1 '! P_wdata [9] $end
$var wire 1 (! P_wdata [8] $end
$var wire 1 )! P_wdata [7] $end
$var wire 1 *! P_wdata [6] $end
$var wire 1 +! P_wdata [5] $end
$var wire 1 ,! P_wdata [4] $end
$var wire 1 -! P_wdata [3] $end
$var wire 1 .! P_wdata [2] $end
$var wire 1 /! P_wdata [1] $end
$var wire 1 0! P_wdata [0] $end
$var reg 1 1! P_ready $end
$var reg 1 2! P_slverr $end
$var reg 32 3! P_rdata [31:0] $end
$var reg 2 4! present_state [1:0] $end
$var reg 2 5! next_state [1:0] $end
$upscope $end
$upscope $end

$scope begin std $end
$upscope $end
$enddefinitions $end
#0
$dumpvars
0!
1"
b0 #
0$
0%
0&
bx '
01!
02!
b0 3!
b0 4!
b0 5!
0(
0)
0I
0H
0G
0F
0E
0D
0C
0B
0A
0@
0?
0>
0=
0<
0;
0:
09
08
07
06
05
04
03
02
01
00
0/
0.
0-
0,
0+
0*
x0!
x/!
x.!
x-!
x,!
x+!
x*!
x)!
x(!
x'!
x&!
x%!
x$!
x#!
x"!
x!!
x~
x}
x|
x{
xz
xy
xx
xw
xv
xu
xt
xs
xr
xq
xp
xo
0n
0m
0l
0k
0j
0i
0h
0g
0f
0e
0d
0c
0b
0a
0`
0_
0^
0]
0\
0[
0Z
0Y
0X
0W
0V
0U
0T
0S
0R
0Q
0P
0O
0N
0M
0L
1K
0J
$end
#5
1!
1J
#10
0"
0!
0K
0J
#15
1!
1J
1$
1&
b1000 '
b1 #
1l
1n
1k
00!
0/!
0.!
1-!
0,!
0+!
0*!
0)!
0(!
0'!
0&!
0%!
0$!
0#!
0"!
0!!
0~
0}
0|
0{
0z
0y
0x
0w
0v
0u
0t
0s
0r
0q
0p
0o
b1 5!
#20
0!
0J
#25
1!
1J
1%
1m
b0 5!
b1 4!
b1 5!
b10 5!
11!
1(
#30
0!
0J
#35
1!
1J
0%
0$
0m
0l
b1 5!
01!
b0 5!
0(
b10 4!
b10 5!
b0 5!
#40
0!
0J
#45
1!
1J
b0 4!
#50
0!
0J
#55
1!
1J
1$
b11111111111111111111111111110111 '
b10 #
1l
0k
1j
10!
1/!
1.!
0-!
1,!
1+!
1*!
1)!
1(!
1'!
1&!
1%!
1$!
1#!
1"!
1!!
1~
1}
1|
1{
1z
1y
1x
1w
1v
1u
1t
1s
1r
1q
1p
1o
b1 5!
#60
0!
0J
#65
1!
1J
1%
1m
b0 5!
b1 4!
b1 5!
b10 5!
11!
1(
#70
0!
0J
#75
1!
1J
0%
0$
0m
0l
b1 5!
01!
b0 5!
0(
b10 4!
b10 5!
b0 5!
#80
0!
0J
#85
1!
1J
b0 4!
#86
b0 #
0j
#90
0!
0J
#95
1!
1J
0&
1$
0n
1l
b1 5!
#100
0!
0J
#105
1!
1J
1%
1m
b0 5!
b1 4!
b1 #
1k
b1 5!
b10 5!
b1000 3!
11!
1F
1(
#110
0!
0J
#115
1!
1J
0%
0$
0m
0l
b1 5!
01!
b0 3!
b0 5!
0(
0F
b10 4!
b10 5!
b0 5!
#120
0!
0J
#125
1!
1J
b0 4!
#130
0!
0J
#135
1!
1J
1$
1l
b1 5!
#140
0!
0J
#145
1!
1J
1%
1m
b0 5!
b1 4!
b10 #
0k
1j
b1 5!
b10 5!
b11111111111111111111111111110111 3!
11!
1I
1H
1G
1E
1D
1C
1B
1A
1@
1?
1>
1=
1<
1;
1:
19
18
17
16
15
14
13
12
11
10
1/
1.
1-
1,
1+
1*
1(
#150
0!
0J
#155
1!
1J
0%
0$
0m
0l
b1 5!
01!
b0 3!
b0 5!
0(
0I
0H
0G
0E
0D
0C
0B
0A
0@
0?
0>
0=
0<
0;
0:
09
08
07
06
05
04
03
02
01
00
0/
0.
0-
0,
0+
0*
b10 4!
b10 5!
b0 5!
#160
0!
0J
#165
1!
1J
b0 4!
#170
0!
0J
#175
1!
1J
1$
1l
b1 5!
#180
0!
0J
#185
1!
1J
1%
1m
b0 5!
b1 4!
b11 #
1k
b1 5!
b10 5!
bx 3!
11!
xI
xH
xG
xF
xE
xD
xC
xB
xA
x@
x?
x>
x=
x<
x;
x:
x9
x8
x7
x6
x5
x4
x3
x2
x1
x0
x/
x.
x-
x,
x+
x*
1(
#190
0!
0J
#195
1!
1J
0%
0$
0m
0l
b1 5!
01!
b0 3!
b0 5!
0(
0I
0H
0G
0F
0E
0D
0C
0B
0A
0@
0?
0>
0=
0<
0;
0:
09
08
07
06
05
04
03
02
01
00
0/
0.
0-
0,
0+
0*
b10 4!
b10 5!
b0 5!
#200
0!
0J
#205
1!
1J
b0 4!
